…
## Warning: There were 20 warnings in `dplyr::mutate()`.
## The first warning was:
## ℹ In argument: `data.. = purrr::map(...)`.
## Caused by warning:
## ! x = 'AMTM', get = 'stock.prices': Error in getSymbols.yahoo(Symbols = "AMTM", env = <environment>, verbose = FALSE, : Unable to import "AMTM".
## cannot open the connection
##  Removing AMTM.
## ℹ Run `dplyr::last_dplyr_warnings()` to see the 19 remaining warnings.

show(TSX_returns)

## # A tibble: 72,008 × 3
## # Groups:   symbol [582]
##    symbol date             Ra
##    <chr>  <date>        <dbl>
##  1 AAP    2023-01-03  0      
##  2 AAP    2023-01-04  0.00231
##  3 AAP    2023-01-05  0.00833
##  4 AAP    2023-01-06  0.00560
##  5 AAP    2023-01-09 -0.0115 
##  6 AAP    2023-01-10 -0.00191
##  7 AAP    2023-01-11  0.00858
##  8 AAP    2023-01-12 -0.00714
##  9 AAP    2023-01-13 -0.00765
## 10 AAP    2023-01-17 -0.0121 
## # ℹ 71,998 more rows
…
#Perform left-join on Ra and Rb to see how well stocks perform against index
RaRb <- left_join(TSX_returns,
                  XLK_returns,
                  by = "date") %>%
        group_by(symbol)
show(RaRb)

## # A tibble: 72,008 × 4
## # Groups:   symbol [582]
##    symbol date             Ra       Rb
##    <chr>  <date>        <dbl>    <dbl>
##  1 AAP    2023-01-03  0        0      
##  2 AAP    2023-01-04  0.00231  0.00259
##  3 AAP    2023-01-05  0.00833 -0.0196 
##  4 AAP    2023-01-06  0.00560  0.0289 
##  5 AAP    2023-01-09 -0.0115   0.0116 
##  6 AAP    2023-01-10 -0.00191  0.00616
##  7 AAP    2023-01-11  0.00858  0.0172 
##  8 AAP    2023-01-12 -0.00714  0.00741
##  9 AAP    2023-01-13 -0.00765  0.00284
## 10 AAP    2023-01-17 -0.0121   0.00451
## # ℹ 71,998 more rows
…
#Depend on return(Alpha) or Risk(Beta) preference, pick appropriate 
#indicator or Information Ratio a/b for both, or top quintile performance.
top_percentile <- CAPM %>%
                filter(AnnualizedAlpha > quantile(CAPM$AnnualizedAlpha, 0.9))

#Using the new tickers, return to our original log-return table to get its log-return
quintile_ticker = top_percentile$symbol

stock_returns_quintile <- TSX_returns %>% filter(symbol %in% quintile_ticker)
show(stock_returns_quintile)

## # A tibble: 7,201 × 3
## # Groups:   symbol [59]
##    symbol date             Ra
##    <chr>  <date>        <dbl>
##  1 ACAD   2023-01-03  0      
##  2 ACAD   2023-01-04  0.0467 
##  3 ACAD   2023-01-05  0.00699
##  4 ACAD   2023-01-06  0.00463
##  5 ACAD   2023-01-09 -0.0258 
##  6 ACAD   2023-01-10  0.0258 
##  7 ACAD   2023-01-11 -0.0163 
##  8 ACAD   2023-01-12  0.0747 
##  9 ACAD   2023-01-13  0.00327
## 10 ACAD   2023-01-17 -0.0192 
## # ℹ 7,191 more rows
…
## Warning in PerformanceAnalytics::Return.portfolio(., weights = weights, : NA's
## detected: filling NA's with zeros

#Now, we join Benchmark return to our portfolio
RaRb_single_portfolio <- left_join(portfolio_returns_daily,
                                   XLK_returns,
                                   by = "date")
show(RaRb_single_portfolio)

## # A tibble: 124 × 3
##    date              Ra       Rb
##    <date>         <dbl>    <dbl>
##  1 2023-01-03  0         0      
##  2 2023-01-04  0.0250    0.00259
##  3 2023-01-05 -0.0272   -0.0196 
##  4 2023-01-06  0.00782   0.0289 
##  5 2023-01-09  0.00963   0.0116 
##  6 2023-01-10  0.0417    0.00616
##  7 2023-01-11  0.0309    0.0172 
##  8 2023-01-12  0.0315    0.00741
##  9 2023-01-13  0.0195    0.00284
## 10 2023-01-17  0.000884  0.00451
## # ℹ 114 more rows
…
